%YAML 1.1
%TAG !u! tag:unity3d.com,2011:
--- !u!21 &2100000
Material:
  serializedVersion: 6
  m_ObjectHideFlags: 0
  m_CorrespondingSourceObject: {fileID: 0}
  m_PrefabInstance: {fileID: 0}
  m_PrefabAsset: {fileID: 0}
  m_Name: CrystalLit
  m_Shader: {fileID: -6465566751694194690, guid: 9587528c818abaf429e883adf0b7a82b,
    type: 3}
  m_ShaderKeywords: 
  m_LightmapFlags: 4
  m_EnableInstancingVariants: 0
  m_DoubleSidedGI: 0
  m_CustomRenderQueue: -1
  stringTagMap:
    MotionVector: User
  disabledShaderPasses:
  - MOTIONVECTORS
  m_SavedProperties:
    serializedVersion: 3
    m_TexEnvs:
    - Texture2D_586100EC:
        m_Texture: {fileID: 2800000, guid: 6a8422be453fab14f98e2b81b67957e5, type: 3}
        m_Scale: {x: 1, y: 1}
        m_Offset: {x: 0, y: 0}
    - Texture2D_E4E06BB6:
        m_Texture: {fileID: 0}
        m_Scale: {x: 1, y: 1}
        m_Offset: {x: 0, y: 0}
    m_Floats:
    - Vector1_3C751764: 0.8
    - Vector1_63590682: 100
    - Vector1_A78915C1: 0
    - Vector1_A8E0FE37: 0
    - Vector1_D0406A39: 100
    - _AlphaCutoff: 0.5
    - _AlphaCutoffEnable: 0
    - _AlphaDstBlend: 0
    - _AlphaSrcBlend: 1
    - _BlendMode: 0
    - _CullMode: 2
    - _CullModeForward: 2
    - _DoubleSidedEnable: 0
    - _DoubleSidedNormalMode: 2
    - _DstBlend: 0
    - _ReceivesSSR: 1
    - _RenderQueueType: 1
    - _RequireSplitLighting: 0
    - _SrcBlend: 1
    - _StencilRef: 2
    - _StencilRefDepth: 0
    - _StencilRefDistortionVec: 64
    - _StencilRefGBuffer: 2
    - _StencilRefMV: 128
    - _StencilWriteMask: 3
    - _StencilWriteMaskDepth: 48
    - _StencilWriteMaskDistortionVec: 64
    - _StencilWriteMaskGBuffer: 51
    - _StencilWriteMaskMV: 176
    - _SurfaceType: 0
    - _TransparentBackfaceEnable: 0
    - _TransparentCullMode: 2
    - _TransparentSortPriority: 0
    - _UseShadowThreshold: 0
    - _ZTestDepthEqualForOpaque: 3
    - _ZTestGBuffer: 4
    - _ZTestTransparent: 4
    - _ZWrite: 1
    m_Colors:
    - Color_6655726D: {r: 0.7490196, g: 0, b: 0, a: 1}
    - Color_9D01907D: {r: 0, g: 0.6403699, b: 1, a: 1}
    - Color_D7FE151A: {r: 0, g: 0.78431374, b: 2.9960785, a: 1}
    - _DoubleSidedConstants: {r: 1, g: 1, b: -1, a: 0}
    - _EmissionColor: {r: 1, g: 1, b: 1, a: 1}
